EMG Fatigue Analysis Pipeline
…
#ex_dyn
ex_dyn_mid1s_table <- extract_middle_1s_window(ex_dyn_table)

ex_dyn_mid1s_table |>
  dplyr::group_by(VC_count) |>
  dplyr::summarise(
    n_rows = dplyr::n(),
    duration_s = max(time_ref_s) - min(time_ref_s),
    fs_est = n_rows / duration_s,
    .groups = "drop"
  )

## # A tibble: 62 × 4
##    VC_count n_rows duration_s fs_est
##       <int>  <int>      <dbl>  <dbl>
##  1        1   2149      1.000  2149.
##  2        2   2148      0.999  2149.
##  3        3   2148      0.999  2149.
##  4        4   2148      0.999  2149.
##  5        5   2148      0.999  2149.
##  6        6   2148      0.999  2149.
##  7        7   2149      1.000  2149.
##  8        8   2149      1.000  2149.
##  9        9   2148      0.999  2149.
## 10       10   2148      0.999  2149.
## # ℹ 52 more rows
…
reference_mid1s_feature_table <- dplyr::bind_rows(
  mvc_ref_mid1s_feature_table,
  svc_ref_mid1s_feature_table,
  mvc_recov_dyn_mid1s_feature_table,
  mvc_recov_sta_mid1s_feature_table
) |>
  dplyr::arrange(SEQ, channel, VC_count)

print(reference_mid1s_feature_table)

## # A tibble: 24 × 7
##    SEQ        VC_count channel rms_mid_1s mdf_mid_1s_hz torque_mean_Nm n_samples
##    <chr>         <int> <chr>        <dbl>         <dbl>          <dbl>     <int>
##  1 MVC_RECOV…        1 emg10    0.000142           72.0           221.      2148
##  2 MVC_RECOV…        1 emg6     0.000143           78.0           221.      2148
##  3 MVC_RECOV…        1 emg8     0.0000884          80.0           221.      2148
##  4 MVC_RECOV…        1 emg10    0.000157           65.0           232.      2149
##  5 MVC_RECOV…        1 emg6     0.000160           76.0           232.      2149
##  6 MVC_RECOV…        1 emg8     0.0000976          82.0           232.      2149
##  7 MVC_REF           1 emg10    0.000105           73.0           231.      2149
##  8 MVC_REF           2 emg10    0.000118           72.0           235.      2149
##  9 MVC_REF           3 emg10    0.000100           71.0           224.      2148
## 10 MVC_REF           1 emg6     0.000115           73.0           231.      2149
## # ℹ 14 more rows
…
print(ex_sta_mid1s_feature_table)

## # A tibble: 180 × 7
##    SEQ    window_id channel rms_mid_1s mdf_mid_1s_hz torque_mean_Nm n_samples
##    <chr>      <int> <chr>        <dbl>         <dbl>          <dbl>     <int>
##  1 EX_STA         1 emg10    0.0000682          64.0           89.0      2149
##  2 EX_STA         2 emg10    0.000110           61.0          142.       2148
##  3 EX_STA         3 emg10    0.000116           73.0          151.       2148
##  4 EX_STA         4 emg10    0.000131           58.0          161.       2148
##  5 EX_STA         5 emg10    0.000148           58.0          164.       2148
##  6 EX_STA         6 emg10    0.000140           62.0          161.       2148
##  7 EX_STA         7 emg10    0.000128           62.0          156.       2149
##  8 EX_STA         8 emg10    0.000126           65.0          154.       2148
##  9 EX_STA         9 emg10    0.000120           61.0          157.       2148
## 10 EX_STA        10 emg10    0.000133           65.0          160.       2148
## # ℹ 170 more rows
…
print(ex_dyn_reference_rms_comparison_table)

## # A tibble: 186 × 12
##    SEQ    VC_count channel torque_mean_Nm response_variable predictor_variable
##    <chr>     <int> <chr>            <dbl> <chr>             <chr>             
##  1 EX_DYN        1 emg10             237. rms_mid_1s        torque_mean_Nm    
##  2 EX_DYN        2 emg10             254. rms_mid_1s        torque_mean_Nm    
##  3 EX_DYN        3 emg10             237. rms_mid_1s        torque_mean_Nm    
##  4 EX_DYN        4 emg10             237. rms_mid_1s        torque_mean_Nm    
##  5 EX_DYN        5 emg10             233. rms_mid_1s        torque_mean_Nm    
##  6 EX_DYN        6 emg10             230. rms_mid_1s        torque_mean_Nm    
##  7 EX_DYN        7 emg10             219. rms_mid_1s        torque_mean_Nm    
##  8 EX_DYN        8 emg10             208. rms_mid_1s        torque_mean_Nm    
##  9 EX_DYN        9 emg10             209. rms_mid_1s        torque_mean_Nm    
## 10 EX_DYN       10 emg10             209. rms_mid_1s        torque_mean_Nm    
## # ℹ 176 more rows
## # ℹ 6 more variables: fit_type <chr>, observed_rms_mid_1s <dbl>,
## #   expected_rms_mid_1s <dbl>, residual_rms_mid_1s <dbl>,
## #   relative_residual_rms <dbl>, r_squared <dbl>
…
6.2 RMS
Normalization

normalize ex_dyn

ex_dyn_mid1s_feature_table_norm <- ex_dyn_mid1s_feature_table |>
  dplyr::left_join(mvc_ref_mid1s_rms_baseline_table, by = "channel") |>
  dplyr::mutate(
    rms_norm = rms_mid_1s / rms_mvc_ref_mid1s_baseline,
    torque_norm = torque_mean_Nm / torque_mvc_ref_baseline
  )

print(ex_dyn_mid1s_feature_table_norm)

## # A tibble: 186 × 10
##    SEQ    VC_count channel rms_mid_1s mdf_mid_1s_hz torque_mean_Nm n_samples
##    <chr>     <int> <chr>        <dbl>         <dbl>          <dbl>     <int>
##  1 EX_DYN        1 emg10     0.000121          68.0           237.      2149
##  2 EX_DYN        2 emg10     0.000128          72.0           254.      2148
##  3 EX_DYN        3 emg10     0.000142          60.0           237.      2148
##  4 EX_DYN        4 emg10     0.000132          75.0           237.      2148
##  5 EX_DYN        5 emg10     0.000129          68.0           233.      2148
##  6 EX_DYN        6 emg10     0.000116          67.0           230.      2148
##  7 EX_DYN        7 emg10     0.000125          71.0           219.      2149
##  8 EX_DYN        8 emg10     0.000113          70.0           208.      2149
##  9 EX_DYN        9 emg10     0.000134          66.0           209.      2148
## 10 EX_DYN       10 emg10     0.000120          66.0           209.      2148
## # ℹ 176 more rows
## # ℹ 3 more variables: rms_mvc_ref_mid1s_baseline <dbl>, rms_norm <dbl>,
## #   torque_norm <dbl>

normalize ex_sta

ex_sta_mid1s_feature_table_norm <- ex_sta_mid1s_feature_table |>
  dplyr::left_join(mvc_ref_mid1s_rms_baseline_table, by = "channel") |>
  dplyr::mutate(
    rms_norm = rms_mid_1s / rms_mvc_ref_mid1s_baseline,
    torque_norm = torque_mean_Nm / torque_mvc_ref_baseline
  )

print(ex_sta_mid1s_feature_table_norm)

## # A tibble: 180 × 10
##    SEQ    window_id channel rms_mid_1s mdf_mid_1s_hz torque_mean_Nm n_samples
##    <chr>      <int> <chr>        <dbl>         <dbl>          <dbl>     <int>
##  1 EX_STA         1 emg10    0.0000682          64.0           89.0      2149
##  2 EX_STA         2 emg10    0.000110           61.0          142.       2148
##  3 EX_STA         3 emg10    0.000116           73.0          151.       2148
##  4 EX_STA         4 emg10    0.000131           58.0          161.       2148
##  5 EX_STA         5 emg10    0.000148           58.0          164.       2148
##  6 EX_STA         6 emg10    0.000140           62.0          161.       2148
##  7 EX_STA         7 emg10    0.000128           62.0          156.       2149
##  8 EX_STA         8 emg10    0.000126           65.0          154.       2148
##  9 EX_STA         9 emg10    0.000120           61.0          157.       2148
## 10 EX_STA        10 emg10    0.000133           65.0          160.       2148
## # ℹ 170 more rows
## # ℹ 3 more variables: rms_mvc_ref_mid1s_baseline <dbl>, rms_norm <dbl>,
## #   torque_norm <dbl>
…
print(ex_dyn_emg_torque_ratio_table)

## # A tibble: 186 × 6
##    SEQ    VC_count channel rms_norm torque_norm emg_torque_ratio
##    <chr>     <int> <chr>      <dbl>       <dbl>            <dbl>
##  1 EX_DYN        1 emg10       1.13       1.03              1.09
##  2 EX_DYN        2 emg10       1.19       1.10              1.08
##  3 EX_DYN        3 emg10       1.31       1.03              1.28
##  4 EX_DYN        4 emg10       1.22       1.03              1.19
##  5 EX_DYN        5 emg10       1.19       1.01              1.18
##  6 EX_DYN        6 emg10       1.08       0.999             1.08
##  7 EX_DYN        7 emg10       1.16       0.953             1.22
##  8 EX_DYN        8 emg10       1.04       0.905             1.15
##  9 EX_DYN        9 emg10       1.24       0.907             1.36
## 10 EX_DYN       10 emg10       1.11       0.910             1.22
## # ℹ 176 more rows

print(ex_sta_emg_torque_ratio_table)

## # A tibble: 180 × 7
##    SEQ    window_id window_mid_s channel rms_norm torque_norm emg_torque_ratio
##    <chr>      <int>        <dbl> <chr>      <dbl>       <dbl>            <dbl>
##  1 EX_STA         1        2067. emg10      0.632       0.387             1.63
##  2 EX_STA         2        2068. emg10      1.02        0.619             1.65
##  3 EX_STA         3        2069. emg10      1.08        0.656             1.64
##  4 EX_STA         4        2070. emg10      1.21        0.700             1.73
##  5 EX_STA         5        2071. emg10      1.37        0.715             1.92
##  6 EX_STA         6        2072. emg10      1.29        0.701             1.85
##  7 EX_STA         7        2073. emg10      1.18        0.677             1.75
##  8 EX_STA         8        2074. emg10      1.16        0.671             1.73
##  9 EX_STA         9        2075. emg10      1.11        0.683             1.63
## 10 EX_STA        10        2076. emg10      1.23        0.694             1.77
## # ℹ 170 more rows
…
